%YAML 1.1
%TAG !u! tag:unity3d.com,2011:
--- !u!1001 &5349365552946606742
PrefabInstance:
  m_ObjectHideFlags: 0
  serializedVersion: 2
  m_Modification:
    m_TransformParent: {fileID: 0}
    m_Modifications:
    - target: {fileID: 3121127768345634816, guid: 785848427fff0554c8b6f09cc614f0cc,
        type: 3}
      propertyPath: m_Name
      value: Sipayi7
      objectReference: {fileID: 0}
    - target: {fileID: 4327948563984812575, guid: 785848427fff0554c8b6f09cc614f0cc,
        type: 3}
      propertyPath: m_LocalPosition.x
      value: 0
      objectReference: {fileID: 0}
    - target: {fileID: 4327948563984812575, guid: 785848427fff0554c8b6f09cc614f0cc,
        type: 3}
      propertyPath: m_LocalPosition.y
      value: 12
      objectReference: {fileID: 0}
    - target: {fileID: 4327948563984812575, guid: 785848427fff0554c8b6f09cc614f0cc,
        type: 3}
      propertyPath: m_LocalPosition.z
      value: 0
      objectReference: {fileID: 0}
    - target: {fileID: 4327948563984812575, guid: 785848427fff0554c8b6f09cc614f0cc,
        type: 3}
      propertyPath: m_LocalRotation.x
      value: 0
      objectReference: {fileID: 0}
    - target: {fileID: 4327948563984812575, guid: 785848427fff0554c8b6f09cc614f0cc,
        type: 3}
      propertyPath: m_LocalRotation.y
      value: 0
      objectReference: {fileID: 0}
    - target: {fileID: 4327948563984812575, guid: 785848427fff0554c8b6f09cc614f0cc,
        type: 3}
      propertyPath: m_LocalRotation.z
      value: 0
      objectReference: {fileID: 0}
    - target: {fileID: 4327948563984812575, guid: 785848427fff0554c8b6f09cc614f0cc,
        type: 3}
      propertyPath: m_LocalRotation.w
      value: 1
      objectReference: {fileID: 0}
    - target: {fileID: 4327948563984812575, guid: 785848427fff0554c8b6f09cc614f0cc,
        type: 3}
      propertyPath: m_RootOrder
      value: 0
      objectReference: {fileID: 0}
    - target: {fileID: 4327948563984812575, guid: 785848427fff0554c8b6f09cc614f0cc,
        type: 3}
      propertyPath: m_LocalEulerAnglesHint.x
      value: 0
      objectReference: {fileID: 0}
    - target: {fileID: 4327948563984812575, guid: 785848427fff0554c8b6f09cc614f0cc,
        type: 3}
      propertyPath: m_LocalEulerAnglesHint.y
      value: 0
      objectReference: {fileID: 0}
    - target: {fileID: 4327948563984812575, guid: 785848427fff0554c8b6f09cc614f0cc,
        type: 3}
      propertyPath: m_LocalEulerAnglesHint.z
      value: 0
      objectReference: {fileID: 0}
    m_RemovedComponents: []
  m_SourcePrefab: {fileID: 100100000, guid: 785848427fff0554c8b6f09cc614f0cc, type: 3}
