%YAML 1.1
%TAG !u! tag:unity3d.com,2011:
--- !u!1001 &2747650475864580457
PrefabInstance:
  m_ObjectHideFlags: 0
  serializedVersion: 2
  m_Modification:
    m_TransformParent: {fileID: 0}
    m_Modifications:
    - target: {fileID: 968806804765935977, guid: 37aa0f42675346745a1c694d752c6c9d,
        type: 3}
      propertyPath: m_Name
      value: Sipayi6
      objectReference: {fileID: 0}
    - target: {fileID: 1886563788013792118, guid: 37aa0f42675346745a1c694d752c6c9d,
        type: 3}
      propertyPath: m_LocalPosition.x
      value: 0
      objectReference: {fileID: 0}
    - target: {fileID: 1886563788013792118, guid: 37aa0f42675346745a1c694d752c6c9d,
        type: 3}
      propertyPath: m_LocalPosition.y
      value: -10
      objectReference: {fileID: 0}
    - target: {fileID: 1886563788013792118, guid: 37aa0f42675346745a1c694d752c6c9d,
        type: 3}
      propertyPath: m_LocalPosition.z
      value: 0
      objectReference: {fileID: 0}
    - target: {fileID: 1886563788013792118, guid: 37aa0f42675346745a1c694d752c6c9d,
        type: 3}
      propertyPath: m_LocalRotation.x
      value: 0
      objectReference: {fileID: 0}
    - target: {fileID: 1886563788013792118, guid: 37aa0f42675346745a1c694d752c6c9d,
        type: 3}
      propertyPath: m_LocalRotation.y
      value: 0
      objectReference: {fileID: 0}
    - target: {fileID: 1886563788013792118, guid: 37aa0f42675346745a1c694d752c6c9d,
        type: 3}
      propertyPath: m_LocalRotation.z
      value: 0
      objectReference: {fileID: 0}
    - target: {fileID: 1886563788013792118, guid: 37aa0f42675346745a1c694d752c6c9d,
        type: 3}
      propertyPath: m_LocalRotation.w
      value: 1
      objectReference: {fileID: 0}
    - target: {fileID: 1886563788013792118, guid: 37aa0f42675346745a1c694d752c6c9d,
        type: 3}
      propertyPath: m_RootOrder
      value: 0
      objectReference: {fileID: 0}
    - target: {fileID: 1886563788013792118, guid: 37aa0f42675346745a1c694d752c6c9d,
        type: 3}
      propertyPath: m_LocalEulerAnglesHint.x
      value: 0
      objectReference: {fileID: 0}
    - target: {fileID: 1886563788013792118, guid: 37aa0f42675346745a1c694d752c6c9d,
        type: 3}
      propertyPath: m_LocalEulerAnglesHint.y
      value: 0
      objectReference: {fileID: 0}
    - target: {fileID: 1886563788013792118, guid: 37aa0f42675346745a1c694d752c6c9d,
        type: 3}
      propertyPath: m_LocalEulerAnglesHint.z
      value: 0
      objectReference: {fileID: 0}
    m_RemovedComponents: []
  m_SourcePrefab: {fileID: 100100000, guid: 37aa0f42675346745a1c694d752c6c9d, type: 3}
